{
    "id": 10,
    "name": "ayakkabı kampanyası",
    "type": "banner",
    "user_id": 12,
    "note": "not yok",
    "rapor_id": 1569,
    "ajans_id": 5454,
    "kurallar": {
        "id": 11,
        "kampanya_id": 10,
        "browser": [
            "chrome",
            "firefox",
            "yandex"
        ],
        "diller": [
            "tr",
            "en"
        ],
        "lokasyon": [
            "turkey",
            "france"
        ],
        "network": [
            "mobil",
            "wifi",
            "lan",
            "intranet"
        ],
        "izinli_domainler": [
            "example.com",
            "domain.com",
            "sample.com"
        ],
        "max_klik": 1500,
        "max_gosterim": 150000,
        "start": "06/06/2017",
        "end": "10/06/2017",
        "haftalik_program": {
            "utc": "+2",
            "all": 1,
            "all_start": "08:00",
            "all_end": "17:00",
            "day1": [
                "08:00",
                "08:30",
                "09:00",
                "09:30"
            ],
            "day2": [
                "08:00",
                "08:30",
                "09:00",
                "09:30"
            ]
        }
    },
    "reklamlar": [
        {
            "id": 7,
            "kampanya_id": 10,
            "name": "imaj reklam",
            "type": "image",
            "status": 1,
            "olcu": "300x250",
            "target_url": "http://www.google.com/",
            "track_image": "http://www.sample.com/45646545.jpg",
            "user_id": 12,
            "kurallar": {}
        }
    ],
    "sayimlar": {
        "current_klik": 700,
        "current_gosterim": 30000
    }
}
